{
    "AWSTemplateFormatVersion": "2010-09-09",
    "Description": "This is ss server",
    "Resources": {
        "SSEC2Role": {
            "Type": "AWS::IAM::Role",
            "Properties": {
                "AssumeRolePolicyDocument": {
                    "Version": "2012-10-17",
                    "Statement": [
                        {
                            "Effect": "Allow",
                            "Principal": {
                                "Service": [
                                    "ec2.amazonaws.com"
                                ]
                            },
                            "Action": [
                                "sts:AssumeRole"
                            ]
                        }
                    ]
                },
                "Path": "/",
                "Policies": [
                    {
                        "PolicyName": "SSRoute53Policy",
                        "PolicyDocument": {
                            "Version": "2012-10-17",
                            "Statement": [
                                {
                                    "Effect": "Allow",
                                    "Action": [
                                        "route53:ChangeResourceRecordSets",
                                        "route53:GetChange",
                                        "route53:ListResourceRecordSets"
                                    ],
                                    "Resource": [
                                        "arn:aws:route53:::hostedzone/ZJ521OGAN0ZQ5"
                                    ]
                                }
                            ]
                        }
                    },
                    {
                        "PolicyName": "SSEC2Policy",
                        "PolicyDocument": {
                            "Version": "2012-10-17",
                            "Statement": [
                                {
                                    "Effect": "Allow",
                                    "Action": [
                                        "ec2:associateAddress"
                                    ],
                                    "Resource": [
                                        "*"
                                    ]
                                }
                            ]
                        }
                    }
                ]
            }
        },
        "InstanceProfile": {
            "Type": "AWS::IAM::InstanceProfile",
            "Properties": {
                "Path": "/",
                "Roles": [
                    {
                        "Ref": "SSEC2Role"
                    }
                ]
            }
        },
        "SSRecordSet": {
            "Type": "AWS::Route53::RecordSet",
            "Properties": {
                "Comment": "ss record set",
                "HostedZoneId": "ZJ521OGAN0ZQ5",
                "Name": "myvpn.ishallbethat.com",
                "TTL": "300",
                "ResourceRecords": [
                    "18.214.200.118"
                ],
                "Type": "A"
            }
        },
        "SSSecurityGroup": {
            "Type": "AWS::EC2::SecurityGroup",
            "Properties": {
                "GroupDescription": "SS Security Group",
                "SecurityGroupIngress": [
                    {
                        "IpProtocol": "tcp",
                        "FromPort": "22",
                        "ToPort": "22",
                        "CidrIp": "0.0.0.0/0"
                    },
                    {
                        "IpProtocol": "tcp",
                        "FromPort": 8888,
                        "ToPort": 8888,
                        "CidrIp": "0.0.0.0/0"
                    }
                ],
                "VpcId": "vpc-56ceaf31"
            }
        },
        "SSAutoScalinggroup": {
            "Type": "AWS::AutoScaling::AutoScalingGroup",
            "Properties": {
                "AvailabilityZones": [
                    "us-east-1a",
                    "us-east-1b",
                    "us-east-1c"
                ],
                "DesiredCapacity": 1,
                "HealthCheckGracePeriod": 900,
                "HealthCheckType": "EC2",
                "LaunchConfigurationName": {
                    "Ref": "SSAutoscalingConfiguration"
                },
                "MaxSize": 1,
                "MinSize": 1
            }
        },
        "SSAutoscalingConfiguration": {
            "Type": "AWS::AutoScaling::LaunchConfiguration",
            "DependsOn": "SSRecordSet",
            "Properties": {
                "ImageId": "ami-759bc50a",
                "InstanceType": "t2.micro",
                "KeyName": "myvpn-us-east-1",
                "IamInstanceProfile": {
                    "Ref": "InstanceProfile"
                },
                "SecurityGroups": [
                    {
                        "Ref": "SSSecurityGroup"
                    }
                ],
                "UserData": {
                    "Fn::Base64": {
                        "Fn::Sub": "#!/bin/bash\napt-get update\napt install awscli -y\napt-get install python-pip -y\npip install shadowsocks\ncat <<EOF >/etc/shadowsocks.json\n{\n   \"server_port\":8888,\n   \"local_port\":0,\n   \"password\": \"gobeyond\",\n   \"timeout\":600,\n   \"method\":\"aes-256-cfb\"\n}\nEOF\nssserver -c /etc/shadowsocks.json -d start\necho \"for stopping ss, enter below\"\necho \"sudo ssserver -c /etc/shadowsocks.json -d stop\"\necho \"please refer https://gist.github.com/nathanielove/40c1dcac777e64ceeb63d8296d263d6d\"\ninstance_id=$(curl http://169.254.169.254/latest/meta-data/instance-id)\necho $instance_id\naws --region us-east-1 ec2 associate-address --instance-id $instance_id --public-ip 18.214.200.118 --allow-reassociation\n"
                    }
                }
            }
        }
    },
    "Outputs": {
        "SSSecurityGroupId": {
            "Description": "Security Group Id",
            "Value": {
                "Ref": "SSSecurityGroup"
            }
        },
        "SSAutoScalinggroupId": {
            "Description": "Autoscaling Group Id",
            "Value": {
                "Ref": "SSAutoScalinggroup"
            }
        },
        "SSAutoscalingConfigurationId": {
            "Description": "Autoscaling Configuration Id",
            "Value": {
                "Ref": "SSAutoscalingConfiguration"
            }
        },
        "RecordSetId": {
            "Description": "RecordSet Id",
            "Value": {
                "Ref": "SSRecordSet"
            }
        },
        "SSRole": {
            "Description": "SSRole Id",
            "Value": {
                "Ref": "SSEC2Role"
            }
        }
    }
}